{
	"ImportPath": "bitbucket.org/ooja/common",
	"GoVersion": "go1.4.2",
	"Deps": [
		{
			"ImportPath": "gopkg.in/mgo.v2/bson",
			"Comment": "r2015.01.24",
			"Rev": "c6a7dce14133ccac2dcac3793f1d6e2ef048503a"
		}
	]
}
